{
    "KPlugin": {
        "Authors": [
            {
                "Email": "aleixpol@kde.org",
                "Name": "Aleix Pol",
                "Name[ar]": "Aleix Pol",
                "Name[az]": "Aleix Pol",
                "Name[ca@valencia]": "Aleix Pol",
                "Name[ca]": "Aleix Pol",
                "Name[cs]": "Aleix Pol",
                "Name[de]": "Aleix Pol",
                "Name[el]": "Aleix Pol",
                "Name[en_GB]": "Aleix Pol",
                "Name[es]": "Aleix Pol",
                "Name[et]": "Aleix Pol",
                "Name[eu]": "Aleix Pol",
                "Name[fi]": "Aleix Pol",
                "Name[fr]": "Aleix Pol",
                "Name[gl]": "Aleix Pol",
                "Name[it]": "Aleix Pol",
                "Name[ka]": "ალის პოლი",
                "Name[ko]": "Aleix Pol",
                "Name[nl]": "Aleix Pol",
                "Name[nn]": "Aleix Pol",
                "Name[pl]": "Aleix Pol",
                "Name[pt]": "Aleix Pol",
                "Name[pt_BR]": "Aleix Pol",
                "Name[ru]": "Aleix Pol Gonzalez",
                "Name[sk]": "Aleix Pol",
                "Name[sl]": "Aleix Pol",
                "Name[sv]": "Aleix Pol",
                "Name[tr]": "Aleix Pol",
                "Name[uk]": "Aleix Pol",
                "Name[x-test]": "xxAleix Polxx",
                "Name[zh_CN]": "Aleix Pol"
            }
        ],
        "Category": "Documentation",
        "Description": "Allows KDevelop to provide CMake documentation",
        "Description[az]": "KDevelop'a CMake sənədlərini təqdim etməyə imkan verir",
        "Description[bs]": "Dopišta KDevelopu da obezbjedi CMake dokumentaciju",
        "Description[ca@valencia]": "Permet a KDevelop proporcionar documentació de CMake",
        "Description[ca]": "Permet al KDevelop proporcionar documentació de CMake",
        "Description[cs]": "Umožňuje KDevelop poskytovat dokumentaci CMake",
        "Description[de]": "Ermöglicht das Bereitstellen von Dokumentation für CMake",
        "Description[el]": "Επιτρέπει στο KDevelop να παρέχει τεκμηρίωση για το cmake",
        "Description[en_GB]": "Allows KDevelop to provide CMake documentation",
        "Description[es]": "Permite que KDevelop proporcione documentación de CMake",
        "Description[et]": "Võimaldab KDevelopil pakkuda CMake'i dokumentatsiooni",
        "Description[eu]": "KDevelop CMake dokumentazioa sortzen uzten du",
        "Description[fi]": "Sallii KDevelop-ohjelman tarjota CMake-dokumentaation",
        "Description[fr]": "Permet à KDevelop de fournir la documentation CMake",
        "Description[gl]": "Permítelle a KDevelop fornecer documentación de CMake.",
        "Description[it]": "Permette a KDevelop di fornire la documentazione a CMake",
        "Description[ko]": "KDevelop에서 CMake 문서를 봅니다",
        "Description[nl]": "Staat KDevelop toe om CMake-documentatie te leveren",
        "Description[pl]": "Daje dostęp do dokumentacji CMake",
        "Description[pt]": "Permite ao KDevelop fornecer documentação sobre o CMake",
        "Description[pt_BR]": "Permite ao KDevelop fornecer documentação do CMake",
        "Description[ru]": "Позволяет создавать документацию CMake в KDevelop",
        "Description[sk]": "Povolí KDevelopu poskytnúť dokumentáciu CMake",
        "Description[sl]": "Omogoča, da KDevelop prikaže dokumentacijo za CMake",
        "Description[sv]": "Låter KDevelop tillhandahålla CMake-dokumentation",
        "Description[tr]": "KDevelop uygulamasına CMake belgelendirmesi sağlar",
        "Description[uk]": "Надає змогу KDevelop показувати документацію CMake",
        "Description[x-test]": "xxAllows KDevelop to provide CMake documentationxx",
        "Description[zh_CN]": "允许 KDevelop 提供 CMake 文档",
        "Icon": "cmake",
        "Id": "KDevCMakeDocumentation",
        "License": "GPL",
        "Name": "CMake Documentation",
        "Name[az]": "CMake sənədləşməsi",
        "Name[bs]": "CMake Dokumentacija",
        "Name[ca@valencia]": "Documentació de CMake",
        "Name[ca]": "Documentació de CMake",
        "Name[cs]": "Dokumentace CMake",
        "Name[de]": "CMake-Dokumentation",
        "Name[el]": "Τεκμηρίωση cmake",
        "Name[en_GB]": "CMake Documentation",
        "Name[es]": "Documentación de CMake",
        "Name[et]": "CMake'i dokumentatsioon",
        "Name[eu]": "CMake dokumentazioa",
        "Name[fi]": "CMake-dokumentaatio",
        "Name[fr]": "Documentation CMake",
        "Name[gl]": "Documentación de CMake",
        "Name[it]": "Documentazione CMake",
        "Name[ka]": "CMake-ის დოკუმენტაცია",
        "Name[ko]": "CMake 문서",
        "Name[nl]": "CMake-documentatie",
        "Name[pl]": "Dokumentacja CMake",
        "Name[pt]": "Documentação do CMake",
        "Name[pt_BR]": "Documentação do CMake",
        "Name[ru]": "Документация CMake",
        "Name[sk]": "Dokumentácia CMake",
        "Name[sl]": "Dokumentacija za CMake",
        "Name[sv]": "CMake-dokumentation",
        "Name[tr]": "CMake Belgelendirmesi",
        "Name[uk]": "Документація з CMake",
        "Name[x-test]": "xxCMake Documentationxx",
        "Name[zh_CN]": "CMake 文档"
    },
    "X-KDevelop-Category": "Global",
    "X-KDevelop-Interfaces": [
        "org.kdevelop.IDocumentationProvider",
        "org.kdevelop.ICMakeDocumentation"
    ],
    "X-KDevelop-Mode": "GUI",
    "X-KDevelop-SupportedMimeTypes": [
        "text/x-cmake"
    ]
}
