{
    "KPlugin": {
        "Authors": [
            {
                "Name": "Hamish Rodda",
                "Name[ar]": "Hamish Rodda",
                "Name[az]": "Hamish Rodda",
                "Name[ca@valencia]": "Hamish Rodda",
                "Name[ca]": "Hamish Rodda",
                "Name[cs]": "Hamish Rodda",
                "Name[de]": "Hamish Rodda",
                "Name[el]": "Hamish Rodda",
                "Name[en_GB]": "Hamish Rodda",
                "Name[es]": "Hamish Rodda",
                "Name[et]": "Hamish Rodda",
                "Name[eu]": "Hamish Rodda",
                "Name[fr]": "Hamish Rodda",
                "Name[gl]": "Hamish Rodda",
                "Name[it]": "Hamish Rodda",
                "Name[ka]": "ჰამიშ როდდა",
                "Name[ko]": "Hamish Rodda",
                "Name[nl]": "Hamish Rodda",
                "Name[nn]": "Hamish Rodda",
                "Name[pl]": "Hamish Rodda",
                "Name[pt]": "Hamish Rodda",
                "Name[pt_BR]": "Hamish Rodda",
                "Name[ru]": "Hamish Rodda",
                "Name[sk]": "Hamish Rodda",
                "Name[sl]": "Hamish Rodda",
                "Name[sv]": "Hamish Rodda",
                "Name[tr]": "Hamish Rodda",
                "Name[uk]": "Hamish Rodda",
                "Name[x-test]": "xxHamish Roddaxx",
                "Name[zh_CN]": "Hamish Rodda"
            }
        ],
        "Category": "Core",
        "Description": "This plugin provides a browsable model of the currently parsed classes and other items.",
        "Description[ar]": "توفّر هذه الملحقة طرازًا قابلًا للتّصفّح للأصناف المحلّلة حاليًّا والعناصر الأخرى.",
        "Description[az]": "Bu qoşma, cari təhlil edilmiş sinifləri və digər elementlərin baxılabilən modelini təqdim edir.",
        "Description[ca@valencia]": "Este connector proporciona un model navegable de les classes analitzades actualment i atres elements.",
        "Description[ca]": "Aquest connector proporciona un model navegable de les classes analitzades actualment i altres elements.",
        "Description[de]": "Dieses Modul bietet eine Liste der aktuell eingelesenen Klassen und anderer Elemente.",
        "Description[el]": "Αυτό το πρόσθετο προσφέρει ένα μοντέλο περιήγησης των αναλυμένων κλάσεων και άλλων αντικειμένων.",
        "Description[en_GB]": "This plugin provides a browsable model of the currently parsed classes and other items.",
        "Description[es]": "Este complemento proporciona un modelo navegable de las clases actualmente analizadas y de otros elementos.",
        "Description[et]": "See plugin pakub parajasti parsitavate klasside ja teiste elementide sirvitavat mudelit.",
        "Description[eu]": "Plugin honek unean analizatutako klaseen eta beste elementuen modelo arakagarria ematen du.",
        "Description[fr]": "Ce module fournit un modèle navigable des classes actuellement analysées et d'autres éléments.",
        "Description[gl]": "Este complemento fornece un modelo navegábel das clases e outros elementos que estean procesados.",
        "Description[it]": "Questa estensione fornisce un modello navigabile delle classi attualmente analizzate e di altri elementi.",
        "Description[ko]": "이 플러그인은 현재 해석된 클래스와 기타 항목의 탐색 모델을 제공합니다.",
        "Description[nl]": "Deze plugin levert een model om door te bladeren van de nu ontlede klasse's en andere items.",
        "Description[pl]": "Umożliwia przeglądanie stworzonego modelu klas i innych elementów.",
        "Description[pt]": "Este 'plugin' oferece uma visão navegável sobre as classes e outros itens que estejam a ser processados de momento.",
        "Description[pt_BR]": "Este plugin fornece um modelo navegável das classes atualmente analisadas e outros itens.",
        "Description[ru]": "Это расширение предоставляет просматриваемую модель разобранных на текущий момент классов и других элементов",
        "Description[sk]": "Tento plugin poskytuje prehliadateľný model aktuálne analyzovanej triedy a iných položiek.",
        "Description[sl]": "Vstavek vgradi model trenutno razčlenjenih razredov in drugih predmetov, po katerih je mogoče brskati.",
        "Description[sv]": "Insticksprogrammet tillhandahåller en bläddringsbar modell av klasser och andra objekt som för närvarande har tolkats.",
        "Description[tr]": "Bu eklenti mevcut ayrıştırılmış sınıfların ve diğer öğelerin taranabilir bir modelini sağlar.",
        "Description[uk]": "За допомогою цього додатка можна створити придатну для перегляду модель класів та інших елементів, над якими ви працюєте.",
        "Description[x-test]": "xxThis plugin provides a browsable model of the currently parsed classes and other items.xx",
        "Description[zh_CN]": "此插件提供了一个当前已分析类和其他项目的可浏览化窗口模型。",
        "Description[zh_TW]": "此外掛程式提供一個可瀏覽目前已分析的類別與其他項目的模組。",
        "Icon": "code-class",
        "Id": "kdevclassbrowser",
        "License": "GPL",
        "Name": "Class Browser",
        "Name[ar]": "متصفّح الأصناف",
        "Name[az]": "Sinif ağacı",
        "Name[bg]": "Браузър за класове",
        "Name[bs]": "Pregledač klasa",
        "Name[ca@valencia]": "Navegador de classes",
        "Name[ca]": "Navegador de classes",
        "Name[cs]": "Prohlížeč tříd",
        "Name[da]": "Klassebrowser",
        "Name[de]": "Klassen-Browser",
        "Name[el]": "Περιηγητής κλάσεων",
        "Name[en_GB]": "Class Browser",
        "Name[es]": "Navegador de clases",
        "Name[et]": "Klassibrauser",
        "Name[eu]": "Klase arakatzailea",
        "Name[fr]": "Navigateur de classes",
        "Name[gl]": "Navegador de clases",
        "Name[hu]": "Osztályböngésző",
        "Name[it]": "Navigatore delle classi",
        "Name[ka]": "კლასების ბრაუზერი",
        "Name[kk]": "Класс шолғышы",
        "Name[ko]": "클래스 탐색기",
        "Name[nb]": "Klasseleser",
        "Name[nds]": "Klassenkieker",
        "Name[nl]": "Klassen-browser",
        "Name[pl]": "Przeglądarka klas",
        "Name[pt]": "Navegador de Classes",
        "Name[pt_BR]": "Navegador de classes",
        "Name[ru]": "Дерево классов",
        "Name[sk]": "Prehliadač tried",
        "Name[sl]": "Brskalnik po razredih",
        "Name[sv]": "Klassbläddrare",
        "Name[tr]": "Sınıf Tarayıcı",
        "Name[ug]": "تىپ كۆرگۈ",
        "Name[uk]": "Переглядач класів",
        "Name[x-test]": "xxClass Browserxx",
        "Name[zh_CN]": "类浏览器",
        "Name[zh_TW]": "類別瀏覽器"
    },
    "X-KDevelop-Category": "Global",
    "X-KDevelop-Mode": "GUI"
}
