{
    "KPlugin": {
        "Category": "Documentation",
        "Description": "This plugin provides Manual Pages integration",
        "Description[az]": "Bu qoşma, Təlimat Səhifələrinin inteqrasiyasını təmin edir",
        "Description[bs]": "Ovaj dodatak omogućava integraciju sa stranicama uputstava",
        "Description[ca@valencia]": "Este connector proporciona la integració de les pàgines del manual",
        "Description[ca]": "Aquest connector proporciona la integració de les pàgines del manual",
        "Description[de]": "Dieses Modul integriert Handbuch-Seiten",
        "Description[el]": "Αυτό το πρόσθετο παρέχει ενσωμάτωση των σελίδων του εγχειριδίου",
        "Description[en_GB]": "This plugin provides Manual Pages integration",
        "Description[es]": "Este complemento proporciona la integración de páginas de manual",
        "Description[et]": "See plugin võimaldab manuaalilehekülgede lõimimist",
        "Description[eu]": "Plugin honek Manual Pages integratzen du.",
        "Description[fi]": "Tämä liitännäinen tarjoaa integraation manuaalisivuille",
        "Description[fr]": "Ce module fournit une intégration des pages de manuel",
        "Description[gl]": "Este complemento fornece integración coas páxinas de manual.",
        "Description[it]": "Questa estensione fornisce l'integrazione delle pagine del manuale",
        "Description[ko]": "이 플러그인은 Man 페이지 통합을 제공합니다",
        "Description[nl]": "Deze plugin biedt integratie met man-pagina's",
        "Description[pl]": "Wplata strony podręczników",
        "Description[pt]": "Este 'plugin' oferece a integração com as páginas de manual do Man",
        "Description[pt_BR]": "Este plugin fornece integração com as páginas de manuais",
        "Description[ru]": "Это расширение интегрирует руководства man",
        "Description[sk]": "Tento modul poskytuje integráciu manuálových stránok",
        "Description[sl]": "Ta vstavek omogoči podporo za strani man",
        "Description[sv]": "Insticksprogrammet tillhandahåller integrering av manualsidor",
        "Description[tr]": "Bu eklenti Kılavuz Sayfaları bütünleşmesini sağlar",
        "Description[uk]": "За допомогою цього додатка здійснюється інтеграція з системою сторінок підручника (man)",
        "Description[x-test]": "xxThis plugin provides Manual Pages integrationxx",
        "Description[zh_CN]": "此插件提供了帮助手册整合",
        "EnabledByDefault": false,
        "Icon": "x-office-address-book",
        "Id": "KDevManPage",
        "License": "GPL",
        "Name": "Man Pages",
        "Name[az]": "Təlimat səhifələri",
        "Name[bs]": "Man stgranice",
        "Name[ca@valencia]": "Pàgines «man»",
        "Name[ca]": "Pàgines «man»",
        "Name[cs]": "Manuálové stránky",
        "Name[de]": "Handbuch-Seiten",
        "Name[el]": "Σελίδες εγχειριδίου",
        "Name[en_GB]": "Man Pages",
        "Name[es]": "Páginas de manual",
        "Name[et]": "Manuaalileheküljed",
        "Name[eu]": "Man orriak",
        "Name[fi]": "Mansivut",
        "Name[fr]": "Pages manuel",
        "Name[gl]": "Páxinas de manuais",
        "Name[it]": "Pagine man",
        "Name[ka]": "დოკუმენტაციის გვერდები",
        "Name[ko]": "Man 페이지",
        "Name[nl]": "Man-pagina's",
        "Name[pl]": "Strony instrukcji",
        "Name[pt]": "Páginas do Man",
        "Name[pt_BR]": "Páginas de manuais",
        "Name[ru]": "Man-страницы",
        "Name[sk]": "Manuálové stránky",
        "Name[sl]": "Strani man",
        "Name[sv]": "Manualsidor",
        "Name[tr]": "Kılavuz Sayfaları",
        "Name[uk]": "Сторінки man",
        "Name[x-test]": "xxMan Pagesxx",
        "Name[zh_CN]": "Man 手册"
    },
    "X-KDevelop-Category": "Global",
    "X-KDevelop-Interfaces": [
        "org.kdevelop.IDocumentationProvider"
    ],
    "X-KDevelop-Mode": "GUI"
}
