{
    "KPlugin": {
        "Authors": [
            {
                "Email": "aleixpol@kde.org",
                "Name": "Aleix Pol",
                "Name[ar]": "Aleix Pol",
                "Name[az]": "Aleix Pol",
                "Name[ca@valencia]": "Aleix Pol",
                "Name[ca]": "Aleix Pol",
                "Name[cs]": "Aleix Pol",
                "Name[de]": "Aleix Pol",
                "Name[el]": "Aleix Pol",
                "Name[en_GB]": "Aleix Pol",
                "Name[es]": "Aleix Pol",
                "Name[et]": "Aleix Pol",
                "Name[eu]": "Aleix Pol",
                "Name[fi]": "Aleix Pol",
                "Name[fr]": "Aleix Pol",
                "Name[gl]": "Aleix Pol",
                "Name[it]": "Aleix Pol",
                "Name[ka]": "ალის პოლი",
                "Name[ko]": "Aleix Pol",
                "Name[nl]": "Aleix Pol",
                "Name[nn]": "Aleix Pol",
                "Name[pl]": "Aleix Pol",
                "Name[pt]": "Aleix Pol",
                "Name[pt_BR]": "Aleix Pol",
                "Name[ru]": "Aleix Pol Gonzalez",
                "Name[sk]": "Aleix Pol",
                "Name[sl]": "Aleix Pol",
                "Name[sv]": "Aleix Pol",
                "Name[tr]": "Aleix Pol",
                "Name[uk]": "Aleix Pol",
                "Name[x-test]": "xxAleix Polxx",
                "Name[zh_CN]": "Aleix Pol"
            }
        ],
        "Category": "Runtimes",
        "Description": "Exposes Flatpak runtimes",
        "Description[az]": "Flatpak işləmə vaxtını göstərir",
        "Description[ca@valencia]": "Exposa el temps d'execució de Flatpak",
        "Description[ca]": "Exposa el temps d'execució del Flatpak",
        "Description[de]": "Stellt Flatpak-Laufzeitumgebungen bereit",
        "Description[el]": "Εμφανίζει εκτελέσεις του flatpak",
        "Description[en_GB]": "Exposes Flatpak runtimes",
        "Description[es]": "Expone bibliotecas en tiempo de ejecución de Flatpak",
        "Description[et]": "Flatpaki käitusaegade näitamine",
        "Description[eu]": "Flatpaken exekuzio-denborak erakusten ditu",
        "Description[fr]": "Expose les exécutifs Flatpak",
        "Description[gl]": "Expón os executábeis de Flatpak.",
        "Description[it]": "Espone i runtime di Flatpak",
        "Description[ko]": "Flatpak 런타임 표시",
        "Description[nl]": "Toont Flatpak runtimes",
        "Description[pl]": "Udostępnia biblioteki uruchomieniowe Flatpaka",
        "Description[pt]": "Expõe as bibliotecas do Flatpak",
        "Description[pt_BR]": "Expõe as bibliotecas do Flatpak",
        "Description[ru]": "Предоставляет доступ к средам выполнения Flatpak",
        "Description[sk]": "Vystavuje Flatpak runtimes",
        "Description[sl]": "Izpostavi izvajalne knjižnice za Flatpak",
        "Description[sv]": "Exponerar Flatpak-körtidsprogram",
        "Description[tr]": "Flatpak çalışma zamanlarını gösterir",
        "Description[uk]": "Надає доступ до середовищ виконання Flatpak",
        "Description[x-test]": "xxExposes Flatpak runtimesxx",
        "Description[zh_CN]": "暴露 Flatpak 运行时",
        "Icon": "kdevelop",
        "Id": "kdevflatpak",
        "License": "GPL",
        "Name": "Flatpak Support",
        "Name[az]": "Flatpak dəstəyi",
        "Name[ca@valencia]": "Implementació de Flatpak",
        "Name[ca]": "Implementació del Flatpak",
        "Name[cs]": "Podpora pro Flatpak",
        "Name[de]": "Flatpak-Unterstützung",
        "Name[el]": "Υποστήριξη flatpak",
        "Name[en_GB]": "Flatpak Support",
        "Name[es]": "Implementación de Flatpak",
        "Name[et]": "Flatpaki toetus",
        "Name[eu]": "Flatpak bateragarritasuna",
        "Name[fr]": "Prise en charge de Flatpak",
        "Name[gl]": "Compatibilidade con Flatpak",
        "Name[it]": "Supporto per Flatpak",
        "Name[ka]": "Flatpak-ის მხარდაჭერა",
        "Name[ko]": "Flatpak 지원",
        "Name[nl]": "Ondersteuning van Flatpak",
        "Name[pl]": "Obsługa Flatpak",
        "Name[pt]": "Suporte para o Flatpak",
        "Name[pt_BR]": "Suporte ao Flatpak",
        "Name[ru]": "Поддержка Flatpak",
        "Name[sk]": "Podpora Flatpak",
        "Name[sl]": "Podpora za Flatpak",
        "Name[sv]": "Flatpak-stöd",
        "Name[tr]": "Flatpak Desteği",
        "Name[uk]": "Підтримка Flatpak",
        "Name[x-test]": "xxFlatpak Supportxx",
        "Name[zh_CN]": "Flatpak 支持",
        "Version": "0.1"
    },
    "X-KDevelop-Category": "Global",
    "X-KDevelop-Mode": "GUI"
}
