{
    "KPlugin": {
        "Category": "Project Management",
        "Description": "Builds QMake Projects",
        "Description[az]": "QMake layihələrini qurur",
        "Description[ca@valencia]": "Construeix projectes QMake",
        "Description[ca]": "Construeix projectes QMake",
        "Description[cs]": "Překládá projekty QMake",
        "Description[de]": "Erstellt QMake-Projekte",
        "Description[el]": "Κατασκευάζει έργα qmake",
        "Description[en_GB]": "Builds QMake Projects",
        "Description[es]": "Compila proyectos de QMake",
        "Description[et]": "QMake'i projektide ehitamine",
        "Description[eu]": "QMake proiektuak eraikitzen ditu",
        "Description[fi]": "Kääntää QMake-projekteja",
        "Description[fr]": "Construit des projets QMake",
        "Description[gl]": "Constrúe proxectos QMake.",
        "Description[it]": "Compila i progetti QMake",
        "Description[ko]": "QMake 프로젝트 빌드",
        "Description[nl]": "Bouwt QMake-projecten",
        "Description[pl]": "Buduje projekty QMake",
        "Description[pt]": "Cria projectos do QMake",
        "Description[pt_BR]": "Compila projetos do QMake",
        "Description[ru]": "Собирает проекты QMake",
        "Description[sk]": "Prekladá projekty QMake",
        "Description[sl]": "Izgradi projekte QMake",
        "Description[sv]": "Bygger QMake-projekt",
        "Description[tr]": "QMake Projelerini Derler",
        "Description[uk]": "Збирає проєкти QMake",
        "Description[x-test]": "xxBuilds QMake Projectsxx",
        "Description[zh_CN]": "构建 QMake 工程",
        "Icon": "qtlogo",
        "Id": "KDevQMakeBuilder",
        "Name": "QMake Project Builder",
        "Name[az]": "QMake layihə qurucusu",
        "Name[ca@valencia]": "Constructor de projecte QMake",
        "Name[ca]": "Constructor de projecte QMake",
        "Name[cs]": "Překladač projektů QMake",
        "Name[de]": "Ersteller für QMake-Projekte",
        "Name[el]": "Κατασκευαστής έργου QMake",
        "Name[en_GB]": "QMake Project Builder",
        "Name[es]": "Compilador de proyectos QMake",
        "Name[et]": "QMake'i projektiehitaja",
        "Name[eu]": "QMake proiektu eraikitzailea",
        "Name[fi]": "QMake-projektikäännin",
        "Name[fr]": "Constructeur de projet QMake",
        "Name[gl]": "Construtor de proxectos QMake",
        "Name[it]": "Compilatore progetto QMake",
        "Name[ka]": "QMake პროექტის ამგები",
        "Name[ko]": "QMake 프로젝트 빌더",
        "Name[nl]": "QMake-projectbouwer",
        "Name[pl]": "Budowniczy projektu QMake",
        "Name[pt]": "Compilador de Projectos do QMake",
        "Name[pt_BR]": "Construtor de projetos do QMake",
        "Name[ru]": "Сборщик проектов QMake",
        "Name[sk]": "Prekladač projektov QMake",
        "Name[sl]": "Izgrajevalnik projektov QMake",
        "Name[sv]": "QMake-projektbyggverktyg",
        "Name[tr]": "QMake Proje Oluşturucu",
        "Name[uk]": "Засіб збирання проєктів QMake",
        "Name[x-test]": "xxQMake Project Builderxx",
        "Name[zh_CN]": "QMake 工程构建器"
    },
    "X-KDevelop-Category": "Project",
    "X-KDevelop-IRequired": [
        "org.kdevelop.IOutputView",
        "org.kdevelop.IMakeBuilder"
    ],
    "X-KDevelop-Interfaces": [
        "org.kdevelop.IQMakeBuilder"
    ],
    "X-KDevelop-Mode": "NoGUI",
    "X-KDevelop-ProjectBuilder": "QMake"
}
