{
    "KPlugin": {
        "Category": "Project Management",
        "Description": "Imports and edits Meson projects",
        "Description[az]": "Meson layihələrini idxal edir və onlara düzəliş edir",
        "Description[ca@valencia]": "Importa i edita projectes de Meson",
        "Description[ca]": "Importa i edita projectes del Meson",
        "Description[cs]": "Importuje a upravuje vlastní projekty Meson",
        "Description[de]": "Import und Bearbeitung von benutzerdefinierten Meson-Projekten",
        "Description[el]": "Εισάγει και επεξεργάζεται έργά meson",
        "Description[en_GB]": "Imports and edits Meson projects",
        "Description[es]": "Importa y edita proyectos Meson",
        "Description[et]": "Mesoni projektide importimine ja muutmine",
        "Description[eu]": "Meson proiektuak inportatu eta editatzen ditu",
        "Description[fr]": "Importe et édite des projets Meson",
        "Description[gl]": "Importa e edita proxectos Meson",
        "Description[it]": "Importa e modifica i progetti Meson",
        "Description[ko]": "Meson 프로젝트를 가져오고 관리하기",
        "Description[nl]": "Importeert en bewerkt Meson-projecten",
        "Description[pl]": "Importuje i edytuje projekty Meson",
        "Description[pt]": "Importa e edita os projectos do Meson",
        "Description[pt_BR]": "Importa e edita os projetos do Meson",
        "Description[ru]": "Импорт и настройка проектов Meson",
        "Description[sk]": "Importuje a upravuje projekty Meson",
        "Description[sl]": "Uvozi in ureja projekte Meson",
        "Description[sv]": "Importerar och redigerar Meson-projekt",
        "Description[uk]": "Імпортує і дає змогу редагувати проєкти Meson",
        "Description[x-test]": "xxImports and edits Meson projectsxx",
        "Description[zh_CN]": "导入并编辑 Meson 工程",
        "Icon": "run-build",
        "Id": "KDevMesonManager",
        "Name": "Meson Project Manager",
        "Name[az]": "Meson layihəsi meneceri",
        "Name[ca@valencia]": "Gestor de projectes Meson",
        "Name[ca]": "Gestor de projectes Meson",
        "Name[cs]": "Správce projektů Meson",
        "Name[de]": "Meson-Projektverwaltung",
        "Name[el]": "Διαχειριστής έργου meson",
        "Name[en_GB]": "Meson Project Manager",
        "Name[es]": "Gestor de proyectos Meson",
        "Name[et]": "Mesoni projektihaldur",
        "Name[eu]": "Meson proiektu-kudeatzailea",
        "Name[fr]": "Gestionnaire de projet Meson",
        "Name[gl]": "Xestor de proxectos Meson",
        "Name[it]": "Gestore progetto Meson",
        "Name[ka]": "Meson პროექტებს ამგები",
        "Name[ko]": "Meson 프로젝트 관리자",
        "Name[nl]": "Meson projectbeheerder",
        "Name[pl]": "Zarządzanie projektami Meson",
        "Name[pt]": "Gestor de Projectos do Meson",
        "Name[pt_BR]": "Gerenciador de projetos do Meson",
        "Name[ru]": "Управление проектами Meson",
        "Name[sk]": "Správca projektov Meson",
        "Name[sl]": "Upravljalnik projektov Meson",
        "Name[sv]": "Meson projekthanterare",
        "Name[uk]": "Керування проєктами Meson",
        "Name[x-test]": "xxMeson Project Managerxx",
        "Name[zh_CN]": "Meson 工程管理器"
    },
    "X-KDevelop-Category": "Project",
    "X-KDevelop-FileManager": "Meson",
    "X-KDevelop-IRequired": [
        "org.kdevelop.IProjectBuilder"
    ],
    "X-KDevelop-Interfaces": [
        "org.kdevelop.IBuildSystemManager",
        "org.kdevelop.IProjectFileManager"
    ],
    "X-KDevelop-Mode": "NoGUI",
    "X-KDevelop-ProjectFilesFilter": [
        "meson.build"
    ],
    "X-KDevelop-ProjectFilesFilterDescription": "Meson Project Files"
}
