{
    "KPlugin": {
        "Category": "Project Management",
        "Description": "Imports and edits custom make projects",
        "Description[az]": "Özəl make layihələrini idxal edir və onlara düzəliş edir",
        "Description[bs]": "Uvozi i uređuje korisnički prilagođene projekte",
        "Description[ca@valencia]": "Importa i edita projectes personalitzats de Make",
        "Description[ca]": "Importa i edita projectes personalitzats de Make",
        "Description[cs]": "Importuje a upravuje vlastní projekty make",
        "Description[de]": "Import und Bearbeitung benutzerdefinierten Make-Projekten",
        "Description[el]": "Εισάγει και επεξεργάζεται προσαρμοσμένα έργα make",
        "Description[en_GB]": "Imports and edits custom make projects",
        "Description[es]": "Importa y edita proyectos Make personalizados",
        "Description[et]": "Kohandatud make'i projektide importimine ja muutmine",
        "Description[eu]": "Make proiektu pertsonalizatuak inportatu eta editatzen ditu",
        "Description[fi]": "Tuo ja muokkaa räätälöityjä make-projekteja",
        "Description[fr]": "Importe et édite des projets make personnalisés",
        "Description[gl]": "Importa e edita proxectos que usen un sistema make personalizado.",
        "Description[it]": "Importa e modifica i progetti personalizzati di Make",
        "Description[ko]": "사용자 정의 Make 프로젝트를 가져오고 편집하기",
        "Description[nl]": "Importeert en bewerkt eigen make-projecten",
        "Description[pl]": "Importuje i edytuje projekty make",
        "Description[pt]": "Importa e edita projectos do 'make' personalizados",
        "Description[pt_BR]": "Importa e edita projetos make personalizados",
        "Description[ru]": "Импорт и настройка собственных проектов make",
        "Description[sk]": "Importuje a upravuje vlastné projekty make",
        "Description[sl]": "Uvozi in ureja projekte po meri temelječe na Make",
        "Description[sv]": "Importerar och redigerar egna projekt som använder Make",
        "Description[tr]": "Özel make projelerini içeriye aktarır ve düzenler",
        "Description[uk]": "Імпортує і змінює проєкти нетипових make",
        "Description[x-test]": "xxImports and edits custom make projectsxx",
        "Description[zh_CN]": "导入并编辑定制 make 工程",
        "Icon": "kdevelop",
        "Id": "KDevCustomMakeManager",
        "Name": "Custom Makefile Project Manager",
        "Name[az]": "Fərdi Makefile layihə meneceri",
        "Name[bs]": "Korisnički Makefile menadžer projekta",
        "Name[ca@valencia]": "Gestor de projecte personalitzat Makefile",
        "Name[ca]": "Gestor de projecte personalitzat Makefile",
        "Name[de]": "Projektverwaltung mit eigenem Makefile",
        "Name[el]": "Προσαρμοσμένος διαχειριστής έργου makefile",
        "Name[en_GB]": "Custom Makefile Project Manager",
        "Name[es]": "Gestor de proyectos Makefile personalizados",
        "Name[et]": "Kohandatud Makefile'i projektihaldur",
        "Name[eu]": "Makefile pertsonalizatuen proiektu-kudeatzailea",
        "Name[fi]": "Räätälöity Makefile-projektinhallinta",
        "Name[fr]": "Gestionnaire de projet à Makefile personnalisé",
        "Name[gl]": "Xestor de proxectos con Makefile personalizado",
        "Name[it]": "Gestore progetto Makefile personalizzato",
        "Name[ka]": "ხელით მითითებული Makefile-ების მართვა",
        "Name[ko]": "사용자 정의 Makefile 프로젝트 관리자",
        "Name[nl]": "Aangepaste projectbeheerder voor makefile",
        "Name[pl]": "Zarządzanie własnym systemem budowania",
        "Name[pt]": "Gestor de Projectos de Makefiles Personalizadas",
        "Name[pt_BR]": "Gerenciador de Projeto personalizado do Makefile",
        "Name[ru]": "Управление проектами с собственным Makefile",
        "Name[sk]": "Správca projektu vlastného makefile",
        "Name[sl]": "Upravljalnik projektov z datoteko Makefile po meri",
        "Name[sv]": "Projekthantering av egna Make-filer",
        "Name[tr]": "Özel Makefile Proje Yöneticisi",
        "Name[uk]": "Керування проєктами з власним Makefile",
        "Name[x-test]": "xxCustom Makefile Project Managerxx",
        "Name[zh_CN]": "自定义 Makefile 工程管理器"
    },
    "X-KDevelop-Category": "Project",
    "X-KDevelop-FileManager": "CustomMake",
    "X-KDevelop-IRequired": [
        "org.kdevelop.IMakeBuilder",
        "org.kdevelop.IDefinesAndIncludesManager"
    ],
    "X-KDevelop-Interfaces": [
        "org.kdevelop.IBuildSystemManager",
        "org.kdevelop.IProjectFileManager"
    ],
    "X-KDevelop-Mode": "NoGUI",
    "X-KDevelop-ProjectFilesFilter": [
        "GNUmakefile",
        "Makefile",
        "makefile",
        "GNUmakefile.*",
        "Makefile.*",
        "makefile.*"
    ],
    "X-KDevelop-ProjectFilesFilterDescription": "Makefiles"
}
